[
  {
    "_id": {
      "$oid": "601996a9f2b574034d7a655f"
    },
    "email": "user@example.com",
    "password": "SNCmaFnYrzjd5S23ln0KYA==$OI8lr0/+muI5yMS1Hco9QlpwfcVshU/Or9illl8mLLY2qMMZHLydgpyO7f98fbCIhfJ4OgG3/QPANlLqtD84Zg==",
    "firstName": "Habitual",
    "lastName": "User",
    "permissionLevel": 3,
    "__v": 0
  },
  {
    "_id": {
      "$oid": "601996bff2b574034d7a6560"
    },
    "email": "manager@example.com",
    "password": "avr4Adnx06GNV0Lb/1CGtQ==$vv2o+0w8puRwtS154oT+K3wfy95xnxZLqYCP/O+Dj0oyF+9qJyaIQsu/Xj6gz5xMpGFTmXLmmUVFuizoSp25LA==",
    "firstName": "Strict",
    "lastName": "Manager",
    "permissionLevel": 43,
    "__v": 0
  },
  {
    "_id": {
      "$oid": "601996eff2b574034d7a6561"
    },
    "email": "admin@example.com",
    "password": "a7HQ/taAUrIRPaNTeSfn9A==$fgVhgQttEqG3d4IH6aof5TBdt57J+/Ms9wfN0AEy2iO0gMiHlm0KjOAq3v1W9fbc6VHmd/YS5YusTyqR/TpEaQ==",
    "firstName": "Badass",
    "lastName": "Administrator",
    "permissionLevel": 47,
    "__v": 0
  }
]
